Scenario Identifier,Name of Person,Date of entry,Scenario Status
esm-ssp119-allGHG,Ragnhild Bieltvedt Skeie and Marit Sandstad,2019-11-21 08:15:21.068565,final
esm-ssp126-allGHG,Ragnhild Bieltvedt Skeie and Marit Sandstad,2019-11-21 08:15:22.222649,final
esm-ssp245-allGHG,Ragnhild Bieltvedt Skeie and Marit Sandstad,2019-11-21 08:15:23.376290,final
esm-ssp370-allGHG,Ragnhild Bieltvedt Skeie and Marit Sandstad,2019-11-21 08:15:24.532232,final
esm-ssp370-lowNTCF-allGHG,Ragnhild Bieltvedt Skeie and Marit Sandstad,2019-11-21 08:15:25.689587,final
esm-ssp434-allGHG,Ragnhild Bieltvedt Skeie and Marit Sandstad,2019-11-21 08:15:26.845849,final
esm-ssp460-allGHG,Ragnhild Bieltvedt Skeie and Marit Sandstad,2019-11-21 08:15:27.981296,final
esm-ssp534-over-allGHG,Ragnhild Bieltvedt Skeie and Marit Sandstad,2019-11-21 08:15:29.116182,final
esm-ssp585-allGHG,Ragnhild Bieltvedt Skeie and Marit Sandstad,2019-11-21 08:15:30.275060,final
esm-historical-allGHG,Ragnhild Bieltvedt Skeie and Marit Sandstad,2019-11-21 08:15:31.412236,final
ssp119,Ragnhild Bieltvedt Skeie and Marit Sandstad,2019-11-21 08:15:31.686031,final
ssp126,Ragnhild Bieltvedt Skeie and Marit Sandstad,2019-11-21 08:15:31.954655,final
ssp245,Ragnhild Bieltvedt Skeie and Marit Sandstad,2019-11-21 08:15:32.228866,final
ssp370,Ragnhild Bieltvedt Skeie and Marit Sandstad,2019-11-21 08:15:32.499783,final
ssp370-lowNTCF,Ragnhild Bieltvedt Skeie and Marit Sandstad,2019-11-21 08:15:32.777405,final
ssp434,Ragnhild Bieltvedt Skeie and Marit Sandstad,2019-11-21 08:15:33.054853,final
ssp460,Ragnhild Bieltvedt Skeie and Marit Sandstad,2019-11-21 08:15:33.329024,final
ssp534-over,Ragnhild Bieltvedt Skeie and Marit Sandstad,2019-11-21 08:15:33.608255,final
ssp585,Ragnhild Bieltvedt Skeie and Marit Sandstad,2019-11-21 08:15:33.889393,final
historical,Ragnhild Bieltvedt Skeie and Marit Sandstad,2019-11-21 08:15:34.170337,final
esm-ssp119,Ragnhild Bieltvedt Skeie and Marit Sandstad,2019-11-21 08:15:36.525921,final
esm-ssp126,Ragnhild Bieltvedt Skeie and Marit Sandstad,2019-11-21 08:15:37.679192,final
esm-ssp245,Ragnhild Bieltvedt Skeie and Marit Sandstad,2019-11-21 08:15:38.832665,final
esm-ssp370,Ragnhild Bieltvedt Skeie and Marit Sandstad,2019-11-21 08:15:39.966507,final
esm-ssp370-lowNTCF,Ragnhild Bieltvedt Skeie and Marit Sandstad,2019-11-21 08:15:41.123438,final
esm-ssp434,Ragnhild Bieltvedt Skeie and Marit Sandstad,2019-11-21 08:15:42.279103,final
esm-ssp460,Ragnhild Bieltvedt Skeie and Marit Sandstad,2019-11-21 08:15:43.431776,final
esm-ssp534-over,Ragnhild Bieltvedt Skeie and Marit Sandstad,2019-11-21 08:15:44.592058,final
esm-ssp585,Ragnhild Bieltvedt Skeie and Marit Sandstad,2019-11-21 08:15:45.775217,final
esm-historical,Ragnhild Bieltvedt Skeie and Marit Sandstad,2019-11-21 08:15:47.003697,final
1pctCO2,Ragnhild Bieltvedt Skeie and Marit Sandstad,2019-11-21 08:15:47.273957,final
1pctCO2-4xext,Ragnhild Bieltvedt Skeie and Marit Sandstad,2019-11-21 08:15:47.544504,final
abrupt-0p5xCO2,Ragnhild Bieltvedt Skeie and Marit Sandstad,2019-11-21 08:15:47.822376,final
abrupt-2xCO2,Ragnhild Bieltvedt Skeie and Marit Sandstad,2019-11-21 08:15:48.097484,final
abrupt-4xCO2,Ragnhild Bieltvedt Skeie and Marit Sandstad,2019-11-21 08:15:48.373078,final
piControl,Ragnhild Bieltvedt Skeie and Marit Sandstad,2019-11-21 08:15:48.644964,final
